{
  "data": [
    [
      "",
      "Nicole Beck",
      "17\/08\/2015",
      "other",
      "Ella Wilson",
      "$349,890",
      "active"
    ],
    [
      "",
      "Justin Walker",
      "17\/08\/2015",
      "other",
      "Charlotte Robinson",
      "$345",
      "active"
    ],
    [
      "",
      "Christopher Wallner",
      "15\/08\/2015",
      "other",
      "Lucy Lee",
      "$880,200",
      "not active"
    ],
    [
      "",
      "Hannes Mayr",
      "15\/08\/2015",
      "other",
      "Thomas Williams",
      "$1,777,450",
      "not active"
    ],
    [
      "",
      "Daniel Schneider",
      "14\/08\/2015",
      "other",
      "Lavinia Sousa",
      "$977,450",
      "active"
    ],
    [
      "",
      "Amaka Okafor",
      "14\/08\/2015",
      "other",
      "Luana Araújo",
      "$577,450",
      "not active"
    ],
    [
      "",
      "André Araújo",
      "14\/08\/2015",
      "other",
      "Gabriela Díaz",
      "$2,577,450",
      "active"
    ],
    [
      "",
      "Miguel Villa",
      "13\/08\/2015",
      "other",
      "Aradhya Jain",
      "$2,577,450",
      "active"
    ],
    [
      "",
      "Peter Kramer",
      "10\/08\/2015",
      "other",
      "Trisha Chauhan",
      "$12,577,450",
      "not active"
    ],
    [
      "",
      "Afonso Teixeira",
      "14\/08\/2015",
      "other",
      "Luana Araújo",
      "$577,450",
      "active"
    ],
    [
      "",
      "Jessica Grainger",
      "14\/08\/2015",
      "other",
      "Gabriela Díaz",
      "$2,577,450",
      "active"
    ],
    [
      "",
      "Gilles De Pauw",
      "15\/08\/2015",
      "other",
      "Lucy Lee",
      "$5,880,200",
      "not active"
    ],
    [
      "",
      "Meredith Smith",
      "15\/08\/2015",
      "other",
      "Thomas Williams",
      "$1,777,450",
      "not active"
    ]
  ]
}